{
  "id": "4518683",
  "name": "家政",
  "font_family": "iconfont",
  "css_prefix_text": "icon-",
  "description": "",
  "glyphs": [
    {
      "icon_id": "11518456",
      "name": "验证码",
      "font_class": "yanzhengma",
      "unicode": "e634",
      "unicode_decimal": 58932
    },
    {
      "icon_id": "11613942",
      "name": "手机",
      "font_class": "shouji",
      "unicode": "e603",
      "unicode_decimal": 58883
    }
  ]
}
